Code,Meaning,Comments
"41","Alabama",""
"02","Alaska",""
"98","Arizona",""
"87","Arkansas ",""
"00","At Sea",""
"91","California",""
"K9","Canada",""
"70","Colorado",""
"11","Connecticut ",""
"21","Delaware",""
"34","District of Columbia",""
"42","Florida",""
"09","Foreign At Large",""
"43","Georgia",""
"03","Hawaii",""
"92","Idaho",""
"61","Illinois ",""
"51","Indiana",""
"72","Iowa",""
"73","Kansas ",""
"52","Kentucky ",""
"88","Louisiana",""
"12","Maine",""
"31","Maryland",""
"13","Massachusetts ",""
"62","Michigan",""
"74","Minnesota",""
"45","Mississippi",""
"75","Missouri",""
"93","Montana ",""
"76","Nebraska",""
"94","Nevada",""
"14","New Hampshire",""
"22","New Jersey",""
"83","New Mexico",""
"23","New York",""
"46","North Carolina",""
"77","North Dakota",""
"53","Ohio",""
"84","Oklahoma",""
"95","Oregon",""
"06","Panama Canal",""
"32","Pennsylvania",""
"07","Phillipine Islands",""
"08","Puerto Rico including Virgin Is. & Cuba",""
"15","Rhode Island",""
"47","South Carolina",""
"78","South Dakota",""
"48","Tennessee ",""
"85","Texas",""
"01","US at large",""
"96","Utah",""
"16","Vermont",""
"33","Virginia",""
"97","Washington",""
"54","West Virginia",""
"63","Wisconsin ",""
"79","Wyoming",""
